1) Файловые системы: (Система -> Состояние хранения данных)
FileSystem00, Состояние OK
FileSystem01, Состояние OK

2) Windows 2k8: (Хосты -> Initiators)
 
a. iSCSI (Initiators)
b. Да 
c. 1 (Initiators Paths)
d. 2

3) Конфигурация активных серверов:  (Настройки -> Настройки сервера iSCSI)

a. SP B, 10.244.214.141, iqn.1992-04.com.emc:cs.fnm00131304285.b0
b. SP A, 10.244.214.140, iqn.1992-04.com.emc:cs.fnm00131304285.a0
c. SP B, 10.244.214.142, iqn.1992-04.com.emc:cs.fnm00131304285.a2
d. SP A, 10.244.214.143, iqn.1992-04.com.emc:cs.fnm00131304285.b2

4) Создание:

Панель -> Типичные задачи (раскрыть) -> Создание системы хранения данных для типового ресурса iSCSI

Также и с папкой

Скриншоты! (Зачем не знаю)

